<svg width="21" height="20" viewBox="0 0 21 20" fill="none" xmlns="http://www.w3.org/2000/svg">
<rect width="21" height="20" fill="#1E1E1E"/>
<g id="1368" clip-path="url(#clip0_0_1)">
<rect width="1368" height="6592" transform="translate(-745 -2182)" fill="white"/>
<g id="Popular courses on our platform">
<g id="More-courses">
<g id="arrow">
<path id="Vector" d="M9.5 12.46H2.5V7.53H9.5V2L18.5 10L9.5 18V12.46Z" fill="#0F8277"/>
</g>
</g>
</g>
</g>
<defs>
<clipPath id="clip0_0_1">
<rect width="1368" height="6592" fill="white" transform="translate(-745 -2182)"/>
</clipPath>
</defs>
</svg>
